<?xml version="1.0" encoding="utf-8"?>
<!-- Generator: Adobe Illustrator 16.0.3, SVG Export Plug-In . SVG Version: 6.00 Build 0)  -->
<!DOCTYPE svg PUBLIC "-//W3C//DTD SVG 1.1//EN" "http://www.w3.org/Graphics/SVG/1.1/DTD/svg11.dtd">
<svg version="1.1" id="Layer_1" xmlns="http://www.w3.org/2000/svg" xmlns:xlink="http://www.w3.org/1999/xlink" x="0px" y="0px"
	 width="300px" height="300px" viewBox="0 0 300 300" enable-background="new 0 0 300 300" xml:space="preserve">
<polyline fill="#3FA9F5" points="0,300 0,0 300,0 "/>
<line fill="none" x1="0" y1="300" x2="300" y2="0"/>
<path fill="#FFFFFF" d="M90.808,27.276c-0.346-1.393-2.089-1.865-3.104-0.85L76.229,37.9l-10.474-1.745l-1.745-10.474l11.474-11.474
	c1.021-1.021,0.529-2.762-0.873-3.111c-7.311-1.812-15.36,0.141-21.074,5.853c-6.116,6.117-7.8,14.982-5.254,22.713L15.357,72.587
	c-3.855,3.856-3.855,10.108,0,13.964c3.856,3.856,10.108,3.856,13.964,0L62.22,53.654c7.733,2.578,16.582,0.876,22.738-5.28
	C90.679,42.654,92.627,34.591,90.808,27.276z M22.341,83.271c-2.044,0-3.703-1.658-3.703-3.703c0-2.046,1.659-3.703,3.703-3.703
	c2.045,0,3.703,1.657,3.703,3.703C26.044,81.613,24.386,83.271,22.341,83.271z"/>
<g>
	<path fill="#FFFFFF" d="M38.035,141.033l-7.569-7.57l-2.704,2.704l-1.541-1.541l7.24-7.24l1.541,1.541l-2.697,2.697l7.569,7.57
		L38.035,141.033z"/>
	<path fill="#FFFFFF" d="M36.502,124.343l3.35,3.35c-0.095-1.222,0.249-2.224,1.032-3.007c0.401-0.402,0.839-0.69,1.312-0.864
		c0.472-0.174,0.906-0.227,1.302-0.158s0.765,0.213,1.106,0.435s0.809,0.628,1.401,1.221l3.872,3.872l-1.747,1.747l-3.486-3.486
		c-0.692-0.692-1.164-1.099-1.417-1.219c-0.252-0.12-0.518-0.151-0.795-0.093c-0.278,0.058-0.543,0.214-0.796,0.466
		c-0.29,0.29-0.479,0.62-0.565,0.988c-0.088,0.369-0.041,0.748,0.137,1.137s0.545,0.862,1.1,1.417l3.307,3.306l-1.746,1.747
		l-9.111-9.111L36.502,124.343z"/>
	<path fill="#FFFFFF" d="M44.28,119.797l-1.615-1.616l1.746-1.746l1.615,1.616L44.28,119.797z M51.776,127.292l-6.601-6.6
		l1.746-1.746l6.601,6.6L51.776,127.292z"/>
	<path fill="#FFFFFF" d="M52.94,122.36l1.486-2.02c0.414,0.265,0.822,0.372,1.227,0.32c0.404-0.052,0.812-0.283,1.222-0.693
		c0.452-0.452,0.708-0.875,0.771-1.268c0.037-0.269-0.041-0.501-0.236-0.696c-0.133-0.132-0.283-0.201-0.453-0.206
		c-0.17,0.004-0.441,0.123-0.814,0.355c-1.72,1.098-2.896,1.707-3.529,1.827c-0.879,0.166-1.635-0.068-2.27-0.702
		c-0.571-0.572-0.826-1.278-0.764-2.119c0.062-0.841,0.567-1.736,1.516-2.685c0.904-0.903,1.723-1.428,2.455-1.573
		c0.734-0.145,1.471-0.012,2.213,0.397l-1.342,1.952c-0.328-0.186-0.658-0.25-0.992-0.189c-0.333,0.06-0.682,0.272-1.047,0.637
		c-0.46,0.46-0.725,0.853-0.796,1.181c-0.041,0.224,0.011,0.408,0.155,0.553c0.125,0.124,0.289,0.172,0.491,0.143
		c0.273-0.042,0.981-0.422,2.122-1.141c1.142-0.719,2.051-1.11,2.726-1.172c0.675-0.053,1.29,0.197,1.846,0.752
		c0.604,0.605,0.872,1.378,0.802,2.318s-0.601,1.906-1.591,2.896c-0.899,0.899-1.793,1.428-2.683,1.587
		C54.566,122.977,53.728,122.825,52.94,122.36z"/>
	<path fill="#FFFFFF" d="M67.539,111.529l-8.688-4.512l1.697-1.696l5.563,3.089l-3.189-5.463l1.686-1.685l5.426,3.226L66.967,98.9
		l1.721-1.722l4.481,8.719l-1.679,1.678l-5.381-3.107l3.125,5.363L67.539,111.529z"/>
	<path fill="#FFFFFF" d="M78.057,96.809l2.032-1.448c0.415,0.862,0.548,1.701,0.397,2.517c-0.148,0.816-0.586,1.587-1.311,2.312
		c-1.148,1.148-2.372,1.622-3.674,1.423c-1.035-0.166-2.011-0.707-2.927-1.623c-1.094-1.094-1.665-2.236-1.712-3.427
		c-0.048-1.191,0.365-2.224,1.24-3.098c0.981-0.982,2.08-1.433,3.297-1.353c1.215,0.081,2.48,0.803,3.793,2.166l-4.375,4.375
		c0.531,0.506,1.074,0.768,1.632,0.787c0.558,0.019,1.037-0.173,1.438-0.575c0.273-0.273,0.43-0.578,0.467-0.914
		C78.393,97.617,78.293,97.236,78.057,96.809z M76.391,94.944c-0.518-0.493-1.032-0.747-1.544-0.761s-0.945,0.156-1.302,0.513
		c-0.381,0.381-0.558,0.835-0.528,1.361c0.028,0.526,0.284,1.025,0.765,1.498L76.391,94.944z"/>
	<path fill="#FFFFFF" d="M83.467,95.601l-9.111-9.111l1.746-1.747l3.281,3.281c-0.074-1.152,0.258-2.096,0.995-2.833
		c0.804-0.804,1.76-1.178,2.868-1.122c1.107,0.056,2.207,0.629,3.297,1.719c1.127,1.127,1.727,2.263,1.799,3.409
		c0.072,1.146-0.273,2.102-1.041,2.868c-0.377,0.377-0.844,0.654-1.398,0.833s-1.149,0.216-1.783,0.112l0.969,0.97L83.467,95.601z
		 M81.758,90.424c0.684,0.684,1.297,1.081,1.839,1.193c0.767,0.162,1.401-0.008,1.901-0.509c0.387-0.386,0.55-0.878,0.492-1.479
		c-0.059-0.601-0.441-1.255-1.15-1.963c-0.754-0.754-1.435-1.161-2.041-1.221c-0.607-0.06-1.125,0.123-1.551,0.55
		c-0.419,0.418-0.604,0.929-0.557,1.532C80.74,89.127,81.094,89.761,81.758,90.424z"/>
	<path fill="#FFFFFF" d="M88.945,86.356l1.485-2.02c0.414,0.266,0.824,0.372,1.229,0.32c0.403-0.052,0.811-0.283,1.221-0.693
		c0.451-0.452,0.709-0.875,0.771-1.268c0.037-0.27-0.042-0.501-0.236-0.696c-0.132-0.132-0.284-0.201-0.454-0.206
		c-0.169,0.004-0.44,0.123-0.813,0.355c-1.72,1.098-2.896,1.707-3.53,1.827c-0.879,0.166-1.635-0.068-2.268-0.702
		c-0.572-0.572-0.827-1.278-0.766-2.119c0.063-0.841,0.568-1.736,1.518-2.685c0.902-0.903,1.721-1.428,2.454-1.573
		s1.472-0.012,2.212,0.398l-1.342,1.952c-0.327-0.187-0.657-0.25-0.991-0.189c-0.333,0.06-0.683,0.272-1.047,0.637
		c-0.46,0.46-0.726,0.854-0.796,1.181c-0.041,0.224,0.011,0.408,0.156,0.553c0.123,0.124,0.287,0.172,0.49,0.143
		c0.273-0.042,0.98-0.421,2.122-1.141c1.142-0.719,2.05-1.109,2.726-1.171c0.676-0.054,1.291,0.196,1.846,0.751
		c0.605,0.605,0.872,1.378,0.802,2.318s-0.601,1.906-1.591,2.896c-0.898,0.899-1.793,1.428-2.682,1.587
		C90.571,86.972,89.733,86.82,88.945,86.356z"/>
	<path fill="#FFFFFF" d="M91.155,72.922l-1.615-1.616l1.746-1.746l1.615,1.616L91.155,72.922z M98.65,80.417l-6.601-6.6l1.746-1.746
		l6.601,6.6L98.65,80.417z"/>
	<path fill="#FFFFFF" d="M98.739,67.128l1.393,1.392l-1.193,1.193l2.66,2.66c0.539,0.539,0.863,0.841,0.977,0.907
		c0.111,0.066,0.236,0.088,0.375,0.065c0.139-0.022,0.267-0.092,0.383-0.208c0.161-0.162,0.34-0.452,0.534-0.871l1.504,1.206
		c-0.231,0.58-0.604,1.127-1.118,1.641c-0.314,0.315-0.652,0.546-1.01,0.693c-0.359,0.147-0.681,0.196-0.967,0.146
		s-0.595-0.194-0.926-0.435c-0.24-0.166-0.67-0.557-1.287-1.174l-2.877-2.877l-0.802,0.801l-1.392-1.392l0.801-0.801l-1.312-1.312
		l0.733-2.772l2.331,2.331L98.739,67.128z"/>
	<path fill="#FFFFFF" d="M108.401,66.466l2.031-1.448c0.415,0.862,0.547,1.701,0.398,2.517c-0.149,0.816-0.586,1.587-1.311,2.312
		c-1.148,1.148-2.373,1.622-3.674,1.423c-1.036-0.166-2.012-0.707-2.928-1.623c-1.094-1.094-1.664-2.236-1.712-3.427
		c-0.048-1.191,0.366-2.224,1.24-3.098c0.981-0.982,2.081-1.433,3.296-1.352c1.217,0.081,2.482,0.803,3.795,2.166l-4.375,4.375
		c0.53,0.505,1.074,0.768,1.631,0.786c0.558,0.019,1.037-0.173,1.439-0.575c0.273-0.273,0.429-0.578,0.465-0.914
		C108.736,67.274,108.637,66.893,108.401,66.466z M106.735,64.601c-0.518-0.493-1.033-0.747-1.545-0.761s-0.945,0.157-1.302,0.513
		c-0.381,0.381-0.558,0.834-0.528,1.361c0.029,0.526,0.283,1.025,0.765,1.498L106.735,64.601z"/>
	<path fill="#FFFFFF" d="M110.053,54.024l-1.615-1.616l1.746-1.746l1.615,1.616L110.053,54.024z M117.548,61.519l-6.601-6.6
		l1.746-1.746l6.601,6.6L117.548,61.519z"/>
	<path fill="#FFFFFF" d="M118.713,56.587l1.485-2.02c0.415,0.265,0.823,0.372,1.228,0.32c0.404-0.052,0.811-0.283,1.221-0.693
		c0.452-0.452,0.709-0.875,0.771-1.268c0.037-0.27-0.041-0.501-0.236-0.696c-0.133-0.132-0.283-0.201-0.454-0.205
		c-0.169,0.004-0.44,0.123-0.813,0.354c-1.72,1.098-2.896,1.707-3.53,1.827c-0.878,0.166-1.635-0.068-2.269-0.702
		c-0.572-0.572-0.826-1.278-0.764-2.12c0.061-0.841,0.566-1.735,1.516-2.685c0.903-0.903,1.722-1.427,2.455-1.572
		s1.471-0.012,2.213,0.397l-1.343,1.952c-0.327-0.187-0.657-0.25-0.991-0.189s-0.683,0.272-1.047,0.637
		c-0.461,0.46-0.726,0.853-0.797,1.181c-0.041,0.224,0.012,0.408,0.156,0.553c0.124,0.124,0.288,0.172,0.491,0.143
		c0.272-0.042,0.981-0.421,2.122-1.141c1.142-0.719,2.05-1.109,2.725-1.171c0.676-0.054,1.291,0.197,1.846,0.752
		c0.605,0.605,0.873,1.378,0.803,2.318s-0.602,1.906-1.592,2.896c-0.898,0.899-1.793,1.428-2.682,1.587S119.5,57.052,118.713,56.587
		z"/>
	<path fill="#FFFFFF" d="M128.799,41.095l-1.87,1.298c-0.46-0.815-0.626-1.595-0.497-2.336c0.128-0.742,0.621-1.541,1.479-2.398
		c0.779-0.779,1.451-1.268,2.018-1.464c0.565-0.197,1.067-0.231,1.506-0.103c0.439,0.128,1.039,0.571,1.797,1.33l2.02,2.057
		c0.58,0.58,1.036,0.98,1.367,1.2c0.332,0.22,0.731,0.41,1.199,0.572l-1.727,1.728c-0.162-0.07-0.391-0.187-0.684-0.348
		c-0.133-0.075-0.223-0.123-0.268-0.143c-0.008,0.588-0.109,1.125-0.305,1.609s-0.484,0.92-0.87,1.306
		c-0.679,0.679-1.399,1.03-2.159,1.053c-0.761,0.023-1.423-0.248-1.986-0.811c-0.373-0.373-0.616-0.795-0.73-1.265
		c-0.113-0.47-0.088-0.943,0.078-1.419c0.166-0.477,0.492-1.076,0.982-1.796c0.662-0.97,1.085-1.678,1.268-2.125l-0.174-0.174
		c-0.336-0.335-0.658-0.492-0.967-0.469c-0.309,0.023-0.693,0.264-1.152,0.724c-0.312,0.311-0.492,0.614-0.544,0.911
		S128.601,40.68,128.799,41.095z M132.553,40.175c-0.148,0.298-0.414,0.742-0.795,1.33c-0.381,0.588-0.598,1.007-0.646,1.255
		c-0.066,0.39,0.025,0.708,0.273,0.957c0.244,0.244,0.547,0.364,0.907,0.36s0.682-0.147,0.964-0.429
		c0.314-0.314,0.512-0.719,0.59-1.211c0.055-0.369,0-0.7-0.162-0.995c-0.104-0.194-0.363-0.501-0.782-0.919L132.553,40.175z"/>
	<path fill="#FFFFFF" d="M55.086,154.527l-9.11-9.111l2.753-2.753l7.868,4.562l-4.581-7.849l2.76-2.76l9.111,9.111l-1.709,1.709
		l-7.172-7.172l5.363,8.98l-1.771,1.771l-8.975-5.37l7.172,7.172L55.086,154.527z"/>
	<path fill="#FFFFFF" d="M68.167,141.448l-12.368-5.854l1.995-1.995l9.049,4.438l-4.512-8.974l1.951-1.952l5.848,12.374
		L68.167,141.448z"/>
	<path fill="#FFFFFF" d="M74.458,135.156l-9.11-9.111l2.952-2.952c1.119-1.119,1.894-1.802,2.324-2.051
		c0.658-0.385,1.393-0.525,2.203-0.419s1.578,0.521,2.303,1.246c0.56,0.56,0.928,1.131,1.106,1.716
		c0.178,0.584,0.22,1.141,0.124,1.672c-0.096,0.53-0.27,0.992-0.521,1.386c-0.353,0.526-0.945,1.206-1.777,2.039l-1.199,1.199
		l3.436,3.437L74.458,135.156z M68.729,125.747l2.585,2.585l1.007-1.007c0.725-0.725,1.162-1.257,1.311-1.597
		c0.149-0.339,0.191-0.681,0.127-1.022c-0.063-0.341-0.23-0.647-0.5-0.917c-0.33-0.331-0.701-0.507-1.112-0.528
		c-0.409-0.021-0.791,0.091-1.144,0.335c-0.261,0.178-0.723,0.599-1.385,1.262L68.729,125.747z"/>
	<path fill="#FFFFFF" d="M85.719,124.206l-7.166-11.678l1.313-1.312l7.141,11.703L85.719,124.206z"/>
	<path fill="#FFFFFF" d="M93.835,115.779l-9.11-9.111l2.951-2.952c1.119-1.119,1.895-1.802,2.324-2.051
		c0.659-0.385,1.394-0.525,2.204-0.419c0.81,0.105,1.577,0.521,2.302,1.246c0.561,0.56,0.929,1.131,1.107,1.716
		c0.178,0.584,0.219,1.141,0.123,1.672c-0.095,0.53-0.27,0.992-0.521,1.386c-0.352,0.526-0.944,1.205-1.777,2.038l-1.199,1.199
		l3.437,3.437L93.835,115.779z M88.106,106.37l2.586,2.585l1.006-1.006c0.725-0.725,1.162-1.258,1.312-1.598
		c0.149-0.339,0.191-0.681,0.127-1.022c-0.063-0.341-0.23-0.647-0.5-0.917c-0.331-0.331-0.702-0.507-1.112-0.528
		c-0.41-0.021-0.791,0.091-1.144,0.335c-0.261,0.178-0.724,0.599-1.386,1.262L88.106,106.37z"/>
	<path fill="#FFFFFF" d="M104.112,105.503l-1.747,1.747l-6.601-6.6l1.623-1.622l0.938,0.938c-0.165-0.721-0.207-1.263-0.127-1.625
		c0.081-0.363,0.263-0.685,0.545-0.967c0.396-0.397,0.891-0.671,1.479-0.82l0.982,2.063c-0.486,0.104-0.854,0.282-1.107,0.534
		c-0.244,0.245-0.384,0.519-0.419,0.824s0.074,0.682,0.329,1.131c0.256,0.45,0.943,1.236,2.066,2.359L104.112,105.503z"/>
	<path fill="#FFFFFF" d="M103.723,99.105c-0.58-0.58-0.998-1.285-1.256-2.113c-0.256-0.829-0.266-1.648-0.027-2.458
		s0.68-1.538,1.326-2.185c0.999-0.999,2.142-1.493,3.428-1.482c1.287,0.011,2.426,0.511,3.416,1.501
		c0.998,0.999,1.504,2.148,1.516,3.449c0.012,1.301-0.471,2.441-1.447,3.418c-0.605,0.605-1.319,1.045-2.142,1.321
		s-1.641,0.292-2.455,0.05C105.268,100.363,104.481,99.863,103.723,99.105z M105.606,97.408c0.654,0.654,1.312,1,1.971,1.038
		c0.658,0.037,1.215-0.172,1.672-0.628c0.455-0.456,0.664-1.012,0.624-1.668s-0.391-1.316-1.054-1.979
		c-0.646-0.646-1.298-0.989-1.954-1.028c-0.657-0.04-1.213,0.169-1.669,0.625c-0.455,0.456-0.664,1.013-0.627,1.672
		C104.606,96.097,104.952,96.753,105.606,97.408z"/>
	<path fill="#FFFFFF" d="M111.848,84.565l1.393,1.392l-1.193,1.193l2.66,2.66c0.539,0.539,0.864,0.841,0.977,0.907
		c0.111,0.067,0.236,0.088,0.375,0.065c0.139-0.022,0.267-0.092,0.383-0.208c0.161-0.162,0.34-0.452,0.535-0.87l1.503,1.206
		c-0.231,0.581-0.604,1.127-1.118,1.641c-0.314,0.314-0.652,0.546-1.01,0.692c-0.359,0.147-0.682,0.196-0.967,0.146
		c-0.285-0.049-0.595-0.194-0.926-0.435c-0.24-0.165-0.67-0.557-1.287-1.174l-2.877-2.877l-0.803,0.802l-1.392-1.392l0.802-0.802
		l-1.311-1.311l0.732-2.772l2.331,2.331L111.848,84.565z"/>
	<path fill="#FFFFFF" d="M115.991,86.837c-0.58-0.58-0.998-1.285-1.256-2.113c-0.256-0.829-0.266-1.648-0.027-2.458
		c0.238-0.81,0.681-1.538,1.326-2.184c0.999-0.999,2.142-1.493,3.428-1.482c1.287,0.01,2.426,0.511,3.416,1.501
		c0.998,0.999,1.504,2.148,1.516,3.449c0.012,1.301-0.471,2.441-1.447,3.418c-0.605,0.605-1.319,1.045-2.142,1.321
		s-1.641,0.292-2.455,0.05C117.536,88.096,116.749,87.596,115.991,86.837z M117.874,85.141c0.654,0.654,1.312,1,1.971,1.038
		c0.658,0.037,1.216-0.172,1.672-0.628c0.455-0.456,0.664-1.012,0.624-1.668s-0.39-1.317-1.054-1.98
		c-0.646-0.646-1.298-0.989-1.954-1.028c-0.657-0.04-1.213,0.169-1.669,0.625c-0.455,0.456-0.664,1.013-0.627,1.672
		C116.874,83.829,117.219,84.486,117.874,85.141z"/>
	<path fill="#FFFFFF" d="M124.117,72.297l1.392,1.392l-1.193,1.193l2.66,2.66c0.539,0.539,0.864,0.841,0.977,0.907
		c0.111,0.067,0.236,0.088,0.375,0.065c0.139-0.022,0.267-0.092,0.383-0.208c0.161-0.161,0.34-0.451,0.535-0.87l1.503,1.206
		c-0.231,0.58-0.604,1.127-1.118,1.641c-0.314,0.315-0.651,0.546-1.01,0.693c-0.359,0.147-0.681,0.196-0.967,0.146
		c-0.285-0.049-0.595-0.194-0.926-0.435c-0.24-0.166-0.67-0.557-1.287-1.174l-2.877-2.877l-0.802,0.801l-1.392-1.392l0.801-0.801
		l-1.311-1.311l0.732-2.772l2.331,2.331L124.117,72.297z"/>
	<path fill="#FFFFFF" d="M124.629,71.785l1.857-1.858l6.266,3.107l-3.145-6.228l1.808-1.808l4.021,8.682l0.734,1.566
		c0.232,0.539,0.38,0.979,0.443,1.321c0.064,0.342,0.07,0.666,0.016,0.973c-0.053,0.307-0.177,0.626-0.369,0.96
		c-0.192,0.333-0.455,0.666-0.786,0.997c-0.335,0.335-0.7,0.63-1.094,0.883l-1.522-1.212c0.327-0.22,0.601-0.439,0.82-0.659
		c0.406-0.406,0.587-0.825,0.543-1.258c-0.043-0.433-0.197-0.886-0.462-1.358L124.629,71.785z"/>
	<path fill="#FFFFFF" d="M132.612,63.802l1.629-1.628l0.969,0.97c-0.12-0.542-0.104-1.098,0.05-1.666s0.45-1.071,0.89-1.51
		c0.766-0.766,1.717-1.116,2.852-1.05c1.136,0.066,2.24,0.636,3.313,1.709c1.103,1.103,1.689,2.229,1.762,3.378
		c0.072,1.15-0.273,2.108-1.041,2.875c-0.364,0.365-0.768,0.622-1.209,0.773s-1.001,0.214-1.681,0.19l3.325,3.325l-1.746,1.746
		L132.612,63.802z M137.528,65.263c0.742,0.742,1.437,1.143,2.085,1.202c0.648,0.061,1.184-0.121,1.606-0.544
		c0.406-0.406,0.581-0.906,0.525-1.5c-0.057-0.595-0.455-1.263-1.196-2.004c-0.692-0.692-1.345-1.067-1.958-1.125
		s-1.125,0.118-1.535,0.528c-0.427,0.427-0.615,0.946-0.568,1.557C136.535,63.988,136.881,64.617,137.528,65.263z"/>
	<path fill="#FFFFFF" d="M148.885,56.528l2.033-1.448c0.414,0.861,0.546,1.701,0.396,2.517c-0.148,0.816-0.586,1.587-1.311,2.313
		c-1.148,1.147-2.372,1.622-3.674,1.423c-1.035-0.166-2.011-0.707-2.926-1.622c-1.094-1.094-1.666-2.236-1.713-3.427
		c-0.048-1.191,0.365-2.224,1.24-3.098c0.981-0.982,2.08-1.433,3.297-1.352c1.216,0.081,2.48,0.802,3.794,2.166l-4.376,4.375
		c0.531,0.505,1.074,0.768,1.632,0.786c0.558,0.019,1.037-0.173,1.438-0.575c0.273-0.273,0.43-0.578,0.467-0.913
		C149.221,57.336,149.122,56.955,148.885,56.528z M147.22,54.664c-0.519-0.493-1.033-0.747-1.544-0.761
		c-0.512-0.015-0.947,0.156-1.303,0.513c-0.381,0.381-0.557,0.835-0.528,1.361c0.029,0.526,0.284,1.026,0.765,1.498L147.22,54.664z"
		/>
	<path fill="#FFFFFF" d="M46.061,194.101l-11.286-6.937l1.883-1.883l7.632,4.885l-4.593-7.924l2.188-2.188l7.962,4.767l-4.967-7.763
		l1.853-1.852l6.899,11.324l-1.952,1.952l-8.626-4.997l5.003,8.62L46.061,194.101z"/>
	<path fill="#FFFFFF" d="M58.388,177.573l2.032-1.448c0.414,0.862,0.547,1.7,0.397,2.517c-0.149,0.817-0.586,1.587-1.312,2.312
		c-1.147,1.148-2.371,1.622-3.673,1.423c-1.036-0.166-2.011-0.707-2.927-1.622c-1.094-1.094-1.665-2.236-1.713-3.427
		c-0.047-1.191,0.366-2.224,1.24-3.098c0.982-0.982,2.081-1.433,3.297-1.352c1.217,0.081,2.48,0.803,3.795,2.166l-4.375,4.375
		c0.529,0.506,1.074,0.768,1.631,0.787c0.557,0.018,1.037-0.173,1.438-0.575c0.273-0.273,0.429-0.578,0.466-0.914
		C58.724,178.38,58.624,177.999,58.388,177.573z M56.723,175.708c-0.519-0.493-1.033-0.747-1.545-0.761s-0.945,0.156-1.302,0.513
		c-0.382,0.381-0.558,0.835-0.528,1.361c0.029,0.526,0.283,1.025,0.764,1.498L56.723,175.708z"/>
	<path fill="#FFFFFF" d="M64.254,166.734l-1.871,1.299c-0.459-0.816-0.625-1.595-0.496-2.337c0.128-0.742,0.621-1.542,1.479-2.399
		c0.779-0.779,1.451-1.267,2.017-1.464c0.565-0.197,1.067-0.231,1.507-0.102c0.439,0.128,1.039,0.571,1.797,1.33l2.02,2.058
		c0.58,0.58,1.036,0.979,1.367,1.199c0.332,0.219,0.731,0.41,1.199,0.572l-1.727,1.728c-0.162-0.07-0.391-0.187-0.685-0.348
		c-0.132-0.075-0.222-0.122-0.267-0.143c-0.009,0.588-0.11,1.125-0.305,1.61c-0.195,0.485-0.485,0.92-0.871,1.305
		c-0.679,0.679-1.398,1.03-2.159,1.053s-1.422-0.247-1.985-0.811c-0.373-0.373-0.616-0.795-0.73-1.265
		c-0.114-0.471-0.088-0.944,0.078-1.42c0.166-0.477,0.492-1.075,0.981-1.796c0.663-0.969,1.086-1.678,1.269-2.125l-0.174-0.174
		c-0.336-0.336-0.658-0.492-0.967-0.469c-0.309,0.022-0.693,0.264-1.152,0.724c-0.312,0.311-0.492,0.614-0.545,0.911
		C63.982,165.964,64.055,166.319,64.254,166.734z M68.008,165.814c-0.149,0.299-0.414,0.742-0.795,1.331
		c-0.382,0.588-0.598,1.007-0.646,1.255c-0.066,0.39,0.024,0.708,0.273,0.957c0.244,0.245,0.547,0.365,0.907,0.361
		c0.36-0.004,0.681-0.147,0.963-0.429c0.315-0.315,0.512-0.719,0.591-1.212c0.054-0.369,0-0.7-0.162-0.995
		c-0.104-0.195-0.364-0.501-0.783-0.92L68.008,165.814z"/>
	<path fill="#FFFFFF" d="M76.415,163.748l-1.747,1.747l-6.601-6.6l1.623-1.622l0.938,0.938c-0.165-0.721-0.208-1.263-0.127-1.625
		c0.08-0.363,0.262-0.685,0.543-0.966c0.398-0.398,0.892-0.671,1.48-0.82l0.981,2.063c-0.485,0.104-0.854,0.282-1.106,0.535
		c-0.244,0.245-0.385,0.519-0.42,0.823s0.074,0.682,0.33,1.131c0.255,0.449,0.943,1.235,2.066,2.358L76.415,163.748z"/>
	<path fill="#FFFFFF" d="M81.543,154.417l2.033-1.448c0.414,0.862,0.546,1.701,0.396,2.517c-0.148,0.817-0.586,1.587-1.311,2.312
		c-1.148,1.148-2.372,1.622-3.674,1.423c-1.035-0.166-2.011-0.707-2.926-1.622c-1.094-1.094-1.666-2.236-1.713-3.427
		c-0.048-1.191,0.365-2.224,1.24-3.098c0.981-0.982,2.08-1.433,3.297-1.352c1.216,0.081,2.48,0.802,3.794,2.166l-4.376,4.375
		c0.531,0.505,1.074,0.768,1.633,0.786c0.557,0.019,1.036-0.173,1.438-0.575c0.273-0.273,0.43-0.578,0.467-0.914
		C81.879,155.225,81.78,154.843,81.543,154.417z M79.878,152.552c-0.519-0.493-1.032-0.747-1.544-0.761s-0.946,0.157-1.303,0.513
		c-0.381,0.381-0.557,0.835-0.528,1.361c0.029,0.526,0.284,1.025,0.765,1.498L79.878,152.552z"/>
	<path fill="#FFFFFF" d="M91.922,148.24l-8.688-4.512l1.696-1.697l5.563,3.088l-3.188-5.462l1.684-1.684l5.426,3.225l-3.064-5.587
		l1.723-1.722l4.48,8.72l-1.678,1.678l-5.383-3.108l3.127,5.364L91.922,148.24z"/>
	<path fill="#FFFFFF" d="M96.922,136.453c-0.58-0.58-0.999-1.285-1.256-2.113c-0.257-0.829-0.266-1.648-0.027-2.458
		c0.238-0.81,0.68-1.538,1.326-2.184c0.998-0.999,2.141-1.493,3.428-1.482c1.286,0.011,2.425,0.511,3.415,1.501
		c0.999,0.999,1.504,2.148,1.517,3.449c0.012,1.301-0.471,2.44-1.448,3.418c-0.604,0.605-1.319,1.045-2.142,1.321
		s-1.641,0.292-2.455,0.05C98.466,137.711,97.68,137.211,96.922,136.453z M98.805,134.756c0.654,0.655,1.311,1,1.97,1.038
		c0.659,0.037,1.216-0.172,1.672-0.628s0.664-1.012,0.624-1.668c-0.039-0.657-0.391-1.316-1.053-1.979
		c-0.646-0.646-1.298-0.989-1.955-1.029c-0.656-0.04-1.213,0.169-1.668,0.625s-0.665,1.013-0.628,1.672
		C97.805,133.445,98.151,134.102,98.805,134.756z"/>
	<path fill="#FFFFFF" d="M110.293,129.869l-1.746,1.747l-6.601-6.6l1.622-1.622l0.938,0.938c-0.164-0.721-0.207-1.263-0.127-1.625
		c0.081-0.363,0.262-0.685,0.544-0.966c0.397-0.398,0.892-0.671,1.479-0.82l0.982,2.063c-0.485,0.104-0.854,0.282-1.106,0.535
		c-0.245,0.245-0.385,0.519-0.42,0.823s0.074,0.682,0.329,1.131s0.943,1.235,2.066,2.358L110.293,129.869z"/>
	<path fill="#FFFFFF" d="M113.639,126.522l-9.111-9.111l1.747-1.747l4.835,4.835l-0.279-4.369l2.15-2.15l0.155,4.667l6.606,1.771
		l-1.883,1.883l-4.625-1.306l0.038,1.666l2.113,2.113L113.639,126.522z"/>
	<path fill="#FFFFFF" d="M113.413,111.759l-1.616-1.616l1.747-1.747l1.615,1.616L113.413,111.759z M120.908,119.254l-6.601-6.6
		l1.747-1.747l6.601,6.6L120.908,119.254z"/>
	<path fill="#FFFFFF" d="M130.575,109.587l-1.746,1.747l-3.369-3.369c-0.712-0.712-1.21-1.136-1.494-1.271
		c-0.283-0.134-0.567-0.176-0.852-0.124c-0.283,0.051-0.543,0.196-0.779,0.432c-0.303,0.302-0.492,0.656-0.566,1.063
		c-0.074,0.406-0.02,0.79,0.165,1.153c0.185,0.362,0.646,0.912,1.383,1.649l2.989,2.99l-1.746,1.747l-6.6-6.6l1.621-1.622
		l0.97,0.969c-0.17-1.321,0.183-2.419,1.057-3.294c0.386-0.385,0.807-0.668,1.265-0.848s0.876-0.245,1.256-0.192
		c0.379,0.052,0.737,0.182,1.074,0.392c0.338,0.209,0.762,0.568,1.271,1.078L130.575,109.587z"/>
	<path fill="#FFFFFF" d="M132.747,108.286l2.237-1.753c0.265,0.199,0.501,0.282,0.708,0.249c0.291-0.041,0.613-0.24,0.971-0.597
		c0.455-0.456,0.729-0.866,0.82-1.23c0.062-0.245,0.03-0.507-0.094-0.79c-0.092-0.199-0.332-0.493-0.721-0.882l-0.964-0.963
		c0.19,1.235-0.111,2.25-0.907,3.045c-0.887,0.887-1.964,1.214-3.231,0.982c-0.999-0.187-1.939-0.721-2.821-1.603
		c-1.107-1.106-1.686-2.218-1.737-3.334c-0.052-1.117,0.317-2.071,1.109-2.862c0.815-0.816,1.848-1.131,3.095-0.944l-0.926-0.926
		l1.635-1.635l5.922,5.922c0.779,0.779,1.297,1.426,1.555,1.939c0.256,0.514,0.379,0.996,0.366,1.448
		c-0.013,0.452-0.15,0.934-0.413,1.445c-0.264,0.512-0.691,1.063-1.283,1.656c-1.119,1.119-2.104,1.721-2.955,1.806
		s-1.572-0.167-2.16-0.755C132.894,108.445,132.825,108.372,132.747,108.286z M130.434,102.854c0.701,0.7,1.35,1.077,1.945,1.131
		c0.598,0.054,1.094-0.118,1.492-0.516c0.426-0.427,0.621-0.954,0.581-1.582s-0.386-1.269-1.041-1.924
		c-0.684-0.684-1.332-1.05-1.945-1.1s-1.136,0.141-1.565,0.572c-0.419,0.418-0.602,0.926-0.547,1.522
		C129.407,101.555,129.768,102.187,130.434,102.854z"/>
	<path fill="#FFFFFF" d="M136.668,85.271l3.35,3.35c-0.096-1.222,0.248-2.225,1.031-3.008c0.402-0.402,0.84-0.69,1.312-0.864
		c0.473-0.174,0.906-0.227,1.302-0.158s0.766,0.213,1.107,0.435s0.809,0.629,1.4,1.221l3.872,3.872l-1.746,1.746l-3.487-3.487
		c-0.691-0.692-1.164-1.098-1.416-1.218c-0.254-0.12-0.519-0.151-0.796-0.093c-0.278,0.058-0.542,0.213-0.796,0.466
		c-0.289,0.29-0.479,0.619-0.565,0.988c-0.087,0.369-0.041,0.748,0.137,1.138c0.179,0.389,0.545,0.861,1.101,1.417l3.307,3.307
		l-1.747,1.747l-9.111-9.111L136.668,85.271z"/>
	<path fill="#FFFFFF" d="M148.659,82.329l-1.87,1.299c-0.46-0.816-0.626-1.595-0.497-2.337s0.621-1.541,1.479-2.399
		c0.779-0.779,1.451-1.267,2.018-1.464c0.564-0.196,1.067-0.231,1.507-0.102c0.438,0.128,1.038,0.572,1.796,1.33l2.02,2.057
		c0.58,0.58,1.036,0.98,1.367,1.199c0.332,0.22,0.732,0.41,1.2,0.572l-1.728,1.728c-0.162-0.071-0.391-0.187-0.684-0.349
		c-0.133-0.074-0.223-0.122-0.268-0.143c-0.009,0.588-0.109,1.125-0.305,1.61s-0.484,0.919-0.87,1.305
		c-0.68,0.68-1.399,1.03-2.159,1.053c-0.761,0.023-1.422-0.247-1.986-0.811c-0.373-0.373-0.616-0.794-0.73-1.265
		c-0.113-0.471-0.088-0.944,0.078-1.42s0.493-1.075,0.982-1.796c0.662-0.969,1.085-1.677,1.268-2.125l-0.174-0.174
		c-0.336-0.336-0.658-0.493-0.967-0.469c-0.309,0.022-0.693,0.264-1.152,0.724c-0.311,0.311-0.492,0.614-0.545,0.91
		C148.387,81.56,148.459,81.915,148.659,82.329z M152.413,81.41c-0.148,0.298-0.414,0.742-0.795,1.33s-0.597,1.007-0.646,1.255
		c-0.066,0.39,0.024,0.709,0.273,0.958c0.244,0.245,0.547,0.365,0.907,0.361c0.36-0.004,0.682-0.147,0.964-0.429
		c0.314-0.315,0.512-0.719,0.59-1.212c0.054-0.369,0-0.7-0.162-0.994c-0.104-0.195-0.364-0.501-0.783-0.92L152.413,81.41z"/>
	<path fill="#FFFFFF" d="M160.819,79.343l-1.746,1.747l-6.601-6.6l1.622-1.622l0.938,0.938c-0.164-0.721-0.207-1.263-0.127-1.625
		c0.081-0.363,0.262-0.685,0.544-0.966c0.397-0.398,0.892-0.671,1.479-0.82l0.982,2.063c-0.485,0.104-0.854,0.282-1.107,0.535
		c-0.244,0.244-0.384,0.518-0.419,0.823s0.074,0.682,0.329,1.131s0.943,1.235,2.066,2.358L160.819,79.343z"/>
	<path fill="#FFFFFF" d="M170.281,69.881l-1.622,1.622l-0.97-0.97c0.107,0.646,0.07,1.245-0.112,1.796
		c-0.182,0.551-0.459,1.013-0.832,1.386c-0.759,0.758-1.714,1.102-2.865,1.032c-1.152-0.071-2.275-0.653-3.369-1.747
		c-1.118-1.119-1.705-2.232-1.762-3.34c-0.056-1.108,0.318-2.064,1.122-2.868c0.737-0.738,1.683-1.069,2.834-0.994l-3.282-3.282
		l1.747-1.747L170.281,69.881z M162.176,71.099c0.705,0.705,1.312,1.117,1.82,1.237c0.738,0.174,1.359,0.008,1.865-0.497
		c0.402-0.402,0.572-0.915,0.513-1.539s-0.43-1.274-1.109-1.954c-0.759-0.758-1.44-1.167-2.048-1.228s-1.123,0.124-1.551,0.55
		c-0.414,0.415-0.596,0.926-0.547,1.535C161.169,69.813,161.522,70.445,162.176,71.099z"/>
	<path fill="#FFFFFF" d="M171.996,61.379c-0.58-0.58-0.999-1.284-1.255-2.113c-0.258-0.829-0.267-1.648-0.029-2.458
		c0.238-0.81,0.682-1.538,1.328-2.185c0.998-0.999,2.141-1.492,3.427-1.482s2.425,0.511,3.415,1.501
		c0.998,0.999,1.504,2.148,1.517,3.449c0.013,1.301-0.47,2.44-1.448,3.418c-0.605,0.605-1.318,1.045-2.141,1.321
		c-0.822,0.275-1.641,0.292-2.455,0.049C173.54,62.638,172.754,62.138,171.996,61.379z M173.878,59.683
		c0.655,0.655,1.312,1,1.97,1.038c0.659,0.038,1.217-0.172,1.672-0.627c0.456-0.456,0.664-1.012,0.625-1.669
		s-0.391-1.316-1.053-1.979c-0.646-0.646-1.299-0.989-1.955-1.029s-1.213,0.169-1.669,0.625c-0.456,0.456-0.665,1.013-0.628,1.671
		C172.877,58.372,173.223,59.028,173.878,59.683z"/>
	<path fill="#FFFFFF" d="M189.698,50.464l-1.746,1.747l-3.369-3.369c-0.712-0.712-1.21-1.136-1.494-1.271
		c-0.283-0.134-0.567-0.176-0.852-0.125c-0.283,0.052-0.543,0.196-0.779,0.432c-0.303,0.303-0.492,0.657-0.566,1.063
		c-0.074,0.406-0.02,0.79,0.165,1.153c0.185,0.362,0.646,0.912,1.383,1.649l2.989,2.99l-1.746,1.747l-6.6-6.6l1.621-1.622
		l0.97,0.969c-0.169-1.322,0.183-2.42,1.057-3.294c0.386-0.385,0.807-0.668,1.265-0.849c0.458-0.18,0.876-0.244,1.256-0.192
		c0.379,0.052,0.737,0.183,1.075,0.392c0.337,0.209,0.761,0.568,1.271,1.078L189.698,50.464z"/>
	<path fill="#FFFFFF" d="M54.333,207.203l-1.871,1.299c-0.46-0.816-0.626-1.596-0.497-2.336c0.128-0.742,0.622-1.542,1.479-2.399
		c0.778-0.778,1.45-1.267,2.016-1.464c0.566-0.196,1.068-0.23,1.508-0.103c0.439,0.129,1.037,0.572,1.795,1.33l2.021,2.058
		c0.58,0.58,1.036,0.979,1.367,1.199c0.332,0.219,0.731,0.41,1.2,0.571l-1.729,1.728c-0.161-0.07-0.389-0.187-0.684-0.348
		c-0.133-0.074-0.221-0.122-0.267-0.143c-0.009,0.588-0.11,1.125-0.306,1.609c-0.193,0.484-0.484,0.92-0.869,1.305
		c-0.68,0.68-1.399,1.031-2.16,1.054c-0.76,0.022-1.422-0.247-1.985-0.812c-0.373-0.373-0.616-0.795-0.73-1.264
		c-0.114-0.471-0.088-0.943,0.078-1.42c0.165-0.478,0.493-1.076,0.981-1.797c0.663-0.969,1.086-1.678,1.268-2.125l-0.174-0.174
		c-0.336-0.336-0.657-0.492-0.967-0.47c-0.308,0.022-0.692,0.265-1.152,0.724c-0.311,0.311-0.492,0.614-0.543,0.911
		C54.059,206.434,54.133,206.789,54.333,207.203z M58.085,206.283c-0.149,0.299-0.414,0.742-0.796,1.33
		c-0.381,0.588-0.596,1.007-0.646,1.256c-0.066,0.389,0.024,0.708,0.273,0.957c0.245,0.244,0.546,0.364,0.907,0.359
		c0.36-0.004,0.682-0.146,0.963-0.428c0.315-0.314,0.512-0.719,0.591-1.213c0.054-0.367,0-0.699-0.162-0.994
		c-0.103-0.194-0.364-0.5-0.782-0.919L58.085,206.283z"/>
	<path fill="#FFFFFF" d="M61.118,196.39l0.97-0.969l-0.497-0.497c-0.555-0.555-0.91-1.029-1.066-1.42
		c-0.154-0.392-0.16-0.832-0.015-1.321c0.146-0.489,0.46-0.976,0.944-1.46c0.498-0.498,1.059-0.91,1.684-1.237l0.982,1.454
		c-0.344,0.211-0.645,0.445-0.9,0.702c-0.254,0.253-0.375,0.493-0.367,0.721s0.18,0.509,0.516,0.845l0.467,0.466l1.305-1.305
		l1.373,1.374l-1.305,1.305l5.227,5.226l-1.746,1.747l-5.227-5.227l-0.97,0.969L61.118,196.39z"/>
	<path fill="#FFFFFF" d="M77.193,193.515l-0.988-0.988c0.112,0.593,0.073,1.187-0.114,1.781c-0.189,0.595-0.501,1.11-0.936,1.545
		c-0.443,0.443-0.939,0.743-1.486,0.9c-0.547,0.158-1.074,0.14-1.584-0.056c-0.51-0.195-1.076-0.603-1.697-1.224l-4.176-4.176
		l1.746-1.747l3.033,3.033c0.928,0.928,1.529,1.465,1.802,1.61c0.274,0.145,0.556,0.194,0.849,0.146
		c0.292-0.047,0.568-0.202,0.83-0.463c0.298-0.298,0.482-0.647,0.556-1.047s0.031-0.765-0.124-1.094
		c-0.156-0.33-0.705-0.966-1.65-1.911l-2.784-2.784l1.747-1.747l6.6,6.6L77.193,193.515z"/>
	<path fill="#FFFFFF" d="M80.75,189.958l-9.111-9.111l1.747-1.747l9.11,9.111L80.75,189.958z"/>
	<path fill="#FFFFFF" d="M84.415,186.294l-9.111-9.111l1.746-1.746l9.111,9.111L84.415,186.294z"/>
	<path fill="#FFFFFF" d="M80.651,176.857l1.858-1.858l6.265,3.107l-3.145-6.227l1.809-1.809l4.021,8.682l0.733,1.566
		c0.232,0.539,0.38,0.979,0.444,1.32s0.069,0.666,0.016,0.973s-0.177,0.626-0.37,0.96c-0.192,0.333-0.455,0.666-0.786,0.998
		c-0.335,0.335-0.7,0.629-1.093,0.882l-1.523-1.212c0.328-0.22,0.601-0.439,0.82-0.659c0.406-0.406,0.588-0.826,0.544-1.259
		c-0.044-0.433-0.198-0.885-0.464-1.358L80.651,176.857z"/>
	<path fill="#FFFFFF" d="M91.583,165.925l0.969-0.969l-0.496-0.497c-0.556-0.555-0.911-1.029-1.066-1.42s-0.16-0.832-0.016-1.32
		c0.146-0.489,0.46-0.976,0.945-1.46c0.497-0.498,1.059-0.91,1.684-1.237l0.982,1.454c-0.344,0.211-0.645,0.445-0.901,0.702
		c-0.253,0.253-0.375,0.493-0.366,0.721c0.008,0.228,0.18,0.509,0.516,0.845l0.466,0.466l1.306-1.305l1.373,1.374l-1.305,1.305
		l5.227,5.227l-1.747,1.747l-5.227-5.227l-0.97,0.969L91.583,165.925z"/>
	<path fill="#FFFFFF" d="M107.657,163.051l-0.988-0.988c0.112,0.593,0.074,1.186-0.115,1.781c-0.188,0.594-0.5,1.109-0.935,1.544
		c-0.443,0.443-0.938,0.743-1.485,0.901s-1.075,0.139-1.585-0.056c-0.51-0.194-1.075-0.603-1.696-1.224l-4.177-4.176l1.747-1.747
		l3.032,3.033c0.929,0.928,1.529,1.465,1.802,1.61c0.274,0.145,0.557,0.194,0.849,0.146c0.292-0.047,0.569-0.202,0.83-0.463
		c0.298-0.298,0.483-0.647,0.556-1.047c0.072-0.399,0.031-0.764-0.123-1.094c-0.156-0.33-0.706-0.966-1.65-1.911l-2.785-2.784
		l1.746-1.746l6.601,6.6L107.657,163.051z"/>
	<path fill="#FFFFFF" d="M117.218,153.49l-1.747,1.747l-3.367-3.368c-0.713-0.713-1.211-1.137-1.495-1.271
		c-0.284-0.135-0.567-0.176-0.852-0.124c-0.284,0.051-0.544,0.195-0.78,0.432c-0.303,0.302-0.49,0.657-0.565,1.063
		c-0.074,0.406-0.02,0.79,0.165,1.153c0.184,0.362,0.646,0.913,1.383,1.65l2.989,2.989l-1.747,1.747l-6.6-6.6l1.622-1.622l0.97,0.97
		c-0.17-1.322,0.182-2.419,1.057-3.294c0.385-0.385,0.807-0.668,1.264-0.848c0.459-0.181,0.877-0.245,1.256-0.193
		c0.379,0.052,0.738,0.182,1.075,0.392c0.338,0.209,0.762,0.568,1.271,1.078L117.218,153.49z"/>
	<path fill="#FFFFFF" d="M120.223,141.188l-1.411,2.032c-0.401-0.286-0.792-0.414-1.171-0.382s-0.732,0.21-1.06,0.538
		c-0.435,0.435-0.632,0.932-0.591,1.491c0.041,0.56,0.414,1.191,1.119,1.896c0.783,0.783,1.467,1.204,2.053,1.265
		c0.587,0.06,1.102-0.132,1.545-0.575c0.332-0.331,0.509-0.697,0.531-1.097c0.023-0.4-0.152-0.873-0.525-1.42l2.008-1.423
		c0.609,0.965,0.861,1.902,0.758,2.809s-0.579,1.786-1.429,2.635c-0.966,0.965-2.04,1.43-3.222,1.395
		c-1.184-0.035-2.313-0.591-3.391-1.669c-1.09-1.089-1.65-2.226-1.682-3.409s0.445-2.265,1.427-3.247
		c0.804-0.804,1.616-1.27,2.436-1.398C118.44,140.5,119.307,140.687,120.223,141.188z"/>
	<path fill="#FFFFFF" d="M122.75,134.758l1.392,1.392l-1.193,1.193l2.66,2.66c0.539,0.539,0.864,0.841,0.977,0.907
		c0.111,0.066,0.236,0.088,0.375,0.065c0.139-0.022,0.267-0.092,0.383-0.208c0.161-0.161,0.34-0.451,0.534-0.87l1.504,1.206
		c-0.231,0.58-0.604,1.127-1.118,1.641c-0.314,0.315-0.652,0.545-1.01,0.693c-0.359,0.147-0.681,0.196-0.967,0.146
		s-0.595-0.194-0.926-0.435c-0.24-0.166-0.67-0.557-1.287-1.174l-2.877-2.877l-0.802,0.801l-1.392-1.392l0.801-0.801l-1.311-1.311
		l0.732-2.772l2.331,2.331L122.75,134.758z"/>
	<path fill="#FFFFFF" d="M123.194,132.524l-1.616-1.616l1.746-1.746l1.616,1.616L123.194,132.524z M130.688,140.02l-6.6-6.6
		l1.746-1.746l6.6,6.6L130.688,140.02z"/>
	<path fill="#FFFFFF" d="M130.555,133.367c-0.58-0.58-0.999-1.285-1.256-2.114c-0.257-0.828-0.266-1.648-0.027-2.458
		c0.237-0.81,0.68-1.538,1.326-2.185c0.999-0.999,2.141-1.492,3.428-1.482s2.424,0.51,3.414,1.5
		c0.999,0.999,1.505,2.148,1.518,3.449c0.012,1.301-0.471,2.44-1.448,3.418c-0.604,0.605-1.318,1.045-2.142,1.321
		c-0.822,0.275-1.641,0.292-2.454,0.049C132.099,134.625,131.313,134.125,130.555,133.367z M132.438,131.67
		c0.654,0.654,1.311,1,1.971,1.038c0.658,0.038,1.215-0.172,1.671-0.627c0.456-0.456,0.665-1.012,0.625-1.669
		s-0.391-1.316-1.054-1.979c-0.646-0.646-1.298-0.989-1.954-1.028c-0.657-0.04-1.214,0.168-1.669,0.625
		c-0.456,0.456-0.665,1.013-0.627,1.672C131.437,130.359,131.784,131.016,132.438,131.67z"/>
	<path fill="#FFFFFF" d="M148.258,122.45l-1.747,1.747l-3.368-3.368c-0.713-0.713-1.211-1.137-1.494-1.271
		c-0.285-0.135-0.568-0.176-0.852-0.124c-0.284,0.051-0.545,0.195-0.781,0.432c-0.302,0.302-0.49,0.657-0.564,1.063
		c-0.074,0.406-0.02,0.79,0.164,1.153c0.185,0.362,0.646,0.913,1.383,1.65l2.989,2.989l-1.746,1.746l-6.601-6.6l1.623-1.622
		l0.969,0.97c-0.17-1.322,0.183-2.419,1.057-3.294c0.386-0.385,0.807-0.668,1.265-0.848c0.458-0.181,0.876-0.245,1.255-0.193
		c0.38,0.052,0.738,0.182,1.076,0.392c0.338,0.209,0.762,0.568,1.271,1.078L148.258,122.45z"/>
	<path fill="#FFFFFF" d="M146.875,114.661l-1.871,1.299c-0.46-0.816-0.626-1.595-0.497-2.336c0.129-0.742,0.622-1.542,1.479-2.399
		c0.778-0.779,1.45-1.267,2.017-1.464s1.068-0.231,1.507-0.103c0.44,0.128,1.038,0.572,1.796,1.33l2.02,2.058
		c0.58,0.58,1.037,0.979,1.367,1.199c0.332,0.22,0.732,0.41,1.2,0.572l-1.728,1.728c-0.162-0.07-0.39-0.187-0.684-0.348
		c-0.133-0.075-0.222-0.122-0.268-0.143c-0.008,0.588-0.109,1.125-0.305,1.609c-0.194,0.485-0.484,0.92-0.869,1.306
		c-0.68,0.679-1.4,1.03-2.16,1.053s-1.422-0.248-1.986-0.811c-0.373-0.373-0.615-0.795-0.729-1.265
		c-0.114-0.47-0.088-0.943,0.077-1.419c0.166-0.477,0.494-1.075,0.982-1.796c0.663-0.97,1.086-1.678,1.268-2.125l-0.174-0.174
		c-0.336-0.335-0.658-0.492-0.967-0.469c-0.309,0.023-0.692,0.264-1.152,0.724c-0.311,0.311-0.492,0.614-0.543,0.911
		C146.602,113.891,146.676,114.246,146.875,114.661z M150.628,113.741c-0.149,0.298-0.415,0.742-0.796,1.33
		s-0.597,1.007-0.646,1.255c-0.066,0.39,0.025,0.708,0.273,0.957c0.245,0.245,0.547,0.364,0.908,0.36
		c0.359-0.004,0.682-0.146,0.963-0.428c0.314-0.315,0.512-0.719,0.59-1.212c0.055-0.369,0-0.7-0.161-0.995
		c-0.104-0.194-0.364-0.501-0.782-0.919L150.628,113.741z"/>
	<path fill="#FFFFFF" d="M157.362,113.346l-9.111-9.111l1.747-1.747l9.11,9.111L157.362,113.346z"/>
	<path fill="#FFFFFF" d="M158.04,99.469l1.628-1.628l0.97,0.97c-0.121-0.542-0.104-1.098,0.049-1.666
		c0.154-0.567,0.45-1.071,0.89-1.51c0.767-0.766,1.718-1.117,2.853-1.05s2.239,0.636,3.313,1.709
		c1.102,1.102,1.689,2.229,1.762,3.378c0.072,1.15-0.274,2.108-1.041,2.875c-0.365,0.365-0.768,0.622-1.209,0.773
		s-1.002,0.214-1.682,0.19l3.325,3.325l-1.746,1.746L158.04,99.469z M162.956,100.93c0.74,0.741,1.436,1.143,2.084,1.202
		c0.648,0.061,1.184-0.121,1.607-0.544c0.405-0.406,0.58-0.906,0.525-1.501c-0.057-0.594-0.455-1.262-1.197-2.004
		c-0.691-0.692-1.344-1.067-1.957-1.125s-1.125,0.118-1.535,0.528c-0.428,0.427-0.616,0.946-0.568,1.557
		C161.961,99.654,162.309,100.283,162.956,100.93z"/>
	<path fill="#FFFFFF" d="M174.262,96.445l-1.746,1.746l-6.6-6.6l1.622-1.622l0.938,0.938c-0.166-0.721-0.209-1.262-0.128-1.625
		c0.081-0.362,0.263-0.685,0.544-0.966c0.398-0.397,0.891-0.671,1.479-0.82l0.982,2.063c-0.484,0.103-0.854,0.281-1.105,0.534
		c-0.245,0.245-0.385,0.519-0.42,0.824s0.074,0.681,0.329,1.131s0.944,1.236,2.066,2.358L174.262,96.445z"/>
	<path fill="#FFFFFF" d="M173.874,90.048c-0.58-0.58-0.998-1.285-1.255-2.114c-0.257-0.828-0.267-1.647-0.028-2.458
		s0.682-1.538,1.327-2.184c0.999-0.999,2.142-1.493,3.428-1.482s2.425,0.51,3.415,1.5c0.998,0.999,1.504,2.148,1.516,3.449
		c0.013,1.301-0.47,2.441-1.447,3.418c-0.605,0.605-1.318,1.045-2.141,1.321c-0.822,0.275-1.641,0.292-2.455,0.049
		C175.418,91.306,174.632,90.806,173.874,90.048z M175.757,88.351c0.654,0.654,1.312,1,1.97,1.038
		c0.659,0.038,1.217-0.172,1.672-0.627c0.456-0.456,0.664-1.012,0.625-1.669c-0.039-0.657-0.391-1.316-1.054-1.979
		c-0.646-0.646-1.298-0.989-1.954-1.028c-0.657-0.039-1.213,0.168-1.67,0.625c-0.455,0.456-0.664,1.013-0.627,1.672
		S175.102,87.696,175.757,88.351z"/>
	<path fill="#FFFFFF" d="M191.626,79.082l-1.622,1.622l-0.969-0.969c0.107,0.646,0.07,1.245-0.113,1.796
		c-0.182,0.551-0.459,1.013-0.832,1.386c-0.758,0.758-1.713,1.102-2.865,1.032c-1.151-0.07-2.274-0.652-3.368-1.746
		c-1.118-1.119-1.706-2.232-1.762-3.341c-0.056-1.108,0.317-2.064,1.122-2.868c0.737-0.738,1.682-1.069,2.834-0.995l-3.281-3.281
		l1.746-1.746L191.626,79.082z M183.522,80.3c0.705,0.704,1.313,1.116,1.821,1.237c0.737,0.174,1.359,0.008,1.864-0.498
		c0.402-0.402,0.573-0.915,0.514-1.538c-0.061-0.624-0.431-1.275-1.109-1.954c-0.759-0.758-1.441-1.167-2.049-1.228
		c-0.606-0.06-1.123,0.123-1.551,0.55c-0.414,0.414-0.596,0.926-0.547,1.535C182.516,79.013,182.868,79.645,183.522,80.3z"/>
	<path fill="#FFFFFF" d="M197.82,72.888l-0.988-0.988c0.112,0.593,0.073,1.187-0.114,1.781c-0.189,0.595-0.501,1.11-0.936,1.545
		c-0.443,0.443-0.939,0.743-1.486,0.9c-0.547,0.158-1.074,0.14-1.584-0.056c-0.51-0.195-1.076-0.603-1.697-1.224l-4.176-4.176
		l1.746-1.747l3.033,3.033c0.928,0.928,1.529,1.465,1.802,1.61c0.274,0.145,0.556,0.194,0.849,0.146
		c0.292-0.047,0.568-0.202,0.83-0.463c0.298-0.298,0.482-0.647,0.556-1.047s0.031-0.765-0.124-1.094
		c-0.156-0.33-0.705-0.966-1.65-1.911l-2.784-2.784l1.747-1.747l6.6,6.6L197.82,72.888z"/>
	<path fill="#FFFFFF" d="M202.484,58.927l-1.411,2.032c-0.402-0.286-0.793-0.414-1.172-0.382s-0.731,0.21-1.059,0.538
		c-0.436,0.435-0.633,0.932-0.592,1.491c0.042,0.559,0.415,1.191,1.119,1.896c0.783,0.783,1.468,1.205,2.055,1.265
		c0.586,0.06,1.101-0.131,1.544-0.575c0.331-0.332,0.509-0.697,0.532-1.097c0.021-0.399-0.152-0.873-0.525-1.42l2.007-1.423
		c0.608,0.965,0.862,1.902,0.759,2.809s-0.58,1.786-1.43,2.635c-0.965,0.965-2.04,1.431-3.223,1.396
		c-1.184-0.036-2.313-0.591-3.391-1.669c-1.09-1.089-1.65-2.226-1.681-3.409c-0.031-1.183,0.444-2.265,1.427-3.247
		c0.803-0.804,1.615-1.27,2.436-1.399C200.7,58.24,201.568,58.426,202.484,58.927z"/>
	<path fill="#FFFFFF" d="M205.01,52.498l1.392,1.392l-1.193,1.193l2.66,2.66c0.538,0.539,0.864,0.841,0.976,0.907
		c0.111,0.066,0.237,0.088,0.377,0.065c0.139-0.022,0.266-0.092,0.381-0.208c0.162-0.162,0.34-0.451,0.535-0.87l1.503,1.206
		c-0.232,0.58-0.605,1.127-1.119,1.641c-0.314,0.315-0.651,0.545-1.01,0.692c-0.357,0.147-0.68,0.196-0.967,0.146
		c-0.285-0.05-0.594-0.195-0.926-0.436c-0.24-0.165-0.668-0.557-1.286-1.174l-2.878-2.877l-0.801,0.802l-1.393-1.392l0.802-0.802
		l-1.312-1.311l0.733-2.772l2.331,2.331L205.01,52.498z"/>
</g>
</svg>
