<?xml version="1.0" encoding="utf-8"?>
<!-- Generator: Adobe Illustrator 16.0.3, SVG Export Plug-In . SVG Version: 6.00 Build 0)  -->
<!DOCTYPE svg PUBLIC "-//W3C//DTD SVG 1.1//EN" "http://www.w3.org/Graphics/SVG/1.1/DTD/svg11.dtd">
<svg version="1.1" id="Layer_1" xmlns="http://www.w3.org/2000/svg" xmlns:xlink="http://www.w3.org/1999/xlink" x="0px" y="0px"
	 width="291px" height="210px" viewBox="27.5 14.5 291 210" enable-background="new 27.5 14.5 291 210" xml:space="preserve">
<g>
	<g>
		<path fill="#FFFFFF" stroke="#318EDE" stroke-width="5" stroke-miterlimit="10" d="M52.18,151.492
			c-0.988-8.109,4.023-12.68,4.023-12.68s-9.756-9.004,0.229-26.231C64.617,98.462,74.87,96.519,74.87,96.519
			s-1.514-6.041,3.501-9.895c5.386-4.142,10.691-3.441,10.691-3.441s1.308-4.948,5.23-6.055c5.283-1.486,8.73,0.857,8.73,0.857
			s4.978-4.768,11.408-4.309c6.427,0.457,8.962,5.078,8.962,5.078s4.068-4.438,10.325-3.701c6.622,0.783,10.126,5.449,10.126,5.449
			s4.845-2.639,12.597,1.125c7.754,3.764,10.126,9.637,10.126,9.637s8.01-0.627,13.211,4.559c5.199,5.186,5.062,10.963,5.062,10.963
			s6.843-0.408,13.153,7.164c5.568,6.688,4.313,12.223,4.313,12.223s4.771,2.233,6.358,5.793c3.044,6.815-0.896,8.725-0.896,8.725
			s5.33,5.771,5.479,15.008c0.165,10.314-4.962,16.615-8.669,18.41c-5.215,2.523-8.779-0.004-8.779-0.004s-0.076,11.67-16.503,7.689
			c-16.429-3.982-23.54-7.971-23.54-7.971s1.935,9.723-6.703,12.715c-8.637,2.988-17.994-0.754-17.994-0.754
			s-7.198-2.166-13.389-0.379c-6.189,1.787-23.617,21.795-23.617,21.795l-6.887-3.342l4.19-16.855c0,0-11.131,6.303-20.132-0.191
			c-10.51-7.586-4.347-23.93-4.347-23.93S53.523,162.529,52.18,151.492z"/>
	</g>
	<g>
		<path fill="#318EDE" d="M273.113,145.109c0,0,5.74,19.959-8.971,28.725c-12.596,7.504-26.183-0.521-26.183-0.521l3.104,20.504
			l-9.414,3.779c0,0-19.865-24.807-27.658-27.195c-7.796-2.387-17.448-0.041-17.448-0.041s-12.678,4.168-23.485,0.236
			c-10.808-3.938-6.944-15.6-6.944-15.6s-9.793,4.547-31.69,8.74c-21.894,4.193-20.375-9.898-20.375-9.898s-4.98,2.92-11.407-0.324
			c-4.567-2.303-10.353-10.102-8.708-22.547c1.475-11.146,9.204-17.912,9.204-17.912s-4.853-2.455,0.046-10.567
			c2.558-4.237,9.067-6.755,9.067-6.755s-0.863-6.729,7.3-14.594c9.25-8.906,18.083-8.156,18.083-8.156s0.624-6.981,8.098-13.046
			c7.479-6.064,17.798-5.01,17.798-5.01s3.896-7,14.493-11.254c10.593-4.252,16.522-0.886,16.522-0.886s5.201-5.501,13.913-6.2
			c8.232-0.657,12.902,4.853,12.902,4.853s3.935-5.484,12.348-5.795c8.418-0.313,14.225,5.628,14.225,5.628s4.803-2.702,11.461-0.71
			c4.941,1.483,5.955,7.507,5.955,7.507s6.989-0.648,13.414,4.553c5.981,4.838,3.174,12.076,3.174,12.076
			s13.054,2.728,21.727,20.078c10.584,21.17-3.341,31.673-3.341,31.673s5.878,5.706,3.469,15.459
			C290.516,145.178,273.113,145.109,273.113,145.109z"/>
	</g>
	<text transform="matrix(-1 0 0 -1 228.9873 57.3945)" fill="#FFFFFF" font-family="'HelveticaNeue-Medium'" font-size="120">?</text>
</g>
</svg>
